{
  "status": true,
  "code": 200,
  "payload": {
    "data": [
      {
        "id": "5f6631b3-d196-4b31-a3d8-ba9ab532fc3d",
        "title": "Product Management",
        "description": "Learn how to manage digital products",
        "image": "https://www.elevate-bootcamp.cloud/storage/entities/diploma/diploma-89a7cfa0a559-1773249871108.png",
        "immutable": true,
        "createdAt": "2026-03-11T17:24:31.097Z",
        "updatedAt": "2026-03-11T17:24:31.109Z"
      },
      {
        "id": "80e0ac18-87db-473c-9d38-4af92c7668ab",
        "title": "Software Testing",
        "description": "Learn manual and automated testing",
        "image": "https://www.elevate-bootcamp.cloud/storage/entities/diploma/diploma-0968d04d899f-1773249815229.jpeg",
        "immutable": true,
        "createdAt": "2026-03-11T17:23:35.223Z",
        "updatedAt": "2026-03-11T17:23:35.230Z"
      },
      {
        "id": "07c143c9-e5d2-4301-8a34-5c76da61ec09",
        "title": "Artificial Intelligence",
        "description": "Understand AI concepts and applications",
        "image": "https://www.elevate-bootcamp.cloud/storage/entities/diploma/diploma-1d5ddf8b8584-1773249758887.jpeg",
        "immutable": true,
        "createdAt": "2026-03-11T17:22:38.881Z",
        "updatedAt": "2026-03-11T17:22:38.888Z"
      },
      {
        "id": "68412923-120b-4c2c-a1b7-95221c523469",
        "title": "Blockchain Development",
        "description": "Build decentralized applications",
        "image": "https://www.elevate-bootcamp.cloud/storage/entities/diploma/diploma-f1d25262441d-1773249687896.png",
        "immutable": true,
        "createdAt": "2026-03-11T17:21:27.889Z",
        "updatedAt": "2026-03-11T17:21:27.897Z"
      },
      {
        "id": "e6b847b6-4172-403d-9ca6-ad0167e6814b",
        "title": "Game Development",
        "description": "Create games using modern engines",
        "image": "https://www.elevate-bootcamp.cloud/storage/entities/diploma/diploma-ab887bb29988-1773249599985.jpeg",
        "immutable": true,
        "createdAt": "2026-03-11T17:19:59.977Z",
        "updatedAt": "2026-03-11T17:19:59.989Z"
      },
      {
        "id": "a3e3e90a-8bca-4100-9908-45ffdeab59f0",
        "title": "Cloud Computing",
        "description": "Learn AWS, Azure, and cloud architecture",
        "image": "https://www.elevate-bootcamp.cloud/storage/entities/diploma/diploma-12b8f8b0b86d-1773249522280.png",
        "immutable": true,
        "createdAt": "2026-03-11T17:18:42.274Z",
        "updatedAt": "2026-03-11T17:18:42.282Z"
      }
    ],
    "metadata": {
      "page": 1,
      "limit": 6,
      "total": 15,
      "totalPages": 3
    }
  }
}